[
    "the quad",
    "in A2L",
    "in front of Costa",
    "in IT corridor",
    "in Art corridor",
    "in English corridor",
    "in Maths corridor",
    "in Humanities corridor",
    "in Science corridor",
    "the Atrium",
    "by reception",
    "in PE block",
    "in the sports hall",
    "on the front field",
    "on the atrium stairs",
    "in D block stairs",
    "in A block stairs",
    "in B block stairs",
    "an MFL classroom",
    "the theatre",
    "the drama room behind the theatre",
    "the lunch queue",
    "in Miss Islam's office",
    "in the attendance office",
    "on the ground floor",
    "on the first floor",
    "on the second floor",
    "on the walkway from IT corridor to the library, that looks over the atrium",
    "anywhere Mr Lloyd is",
    "anywhere Mr Davis is",
    "in front of a Year 10 class",
    "in front of a Year 9 class",
    "in front of a Year 8 class",
    "in front of a Year 7 class",
    "by a gate",
    "behind Mr B"
]